<svg xmlns="http://www.w3.org/2000/svg" viewBox="0 0 24 24">
  <defs/>
  <g fill="none" fill-rule="evenodd" stroke="#000" stroke-linecap="round" stroke-linejoin="round" stroke-width="2">
    <path d="M3 3v18h18"/>
    <path d="M6 18l5-6 3 1 5-6"/>
    <path d="M20 9V6h-3z"/>
  </g>
</svg>
